#########################################################################
# Title:         Cloudbox: Backup Excludes List                         #
# Author(s):     desimaniac                                             #
# URL:           https://github.com/Cloudbox/Cloudbox                   #
# --                                                                    #
#         Part of the Cloudbox project: https://cloudbox.works          #
#########################################################################
#                   GNU General Public License v3.0                     #
#########################################################################

./bazarr/app/log/*

./cloudbox/backup/modified_files/*

./cloudplow/cloudplow.log
./cloudplow/cloudplow.log.*
./cloudplow/locks/*

./drive_strm/*.log*

./lidarr/app/logs/*

./nvidia/*

./plex/Library/Application Support/Plex Media Server/Cache/PhotoTranscoder/*
./plex/Library/Application Support/Plex Media Server/Cache/Transcode/*

./plex_autoscan/plex_autoscan.log
./plex_autoscan/plex_autoscan.log.*

./plex_dupefinder/activity.log
./plex_dupefinder/decisions.log

./python-plexlibrary/plexlibrary.log

./plexpy/logs/*

./radarr/app/logs/*

./radarr4k/app/logs/*

./sonarr/app/logs/*

./sonarr4k/app/logs/*